STA 506 2.0 Linear Regression Analysis
…
---

## Data set 1

We will try to model salary as a function of years of experience.

```r
library(tidyverse)
salarydata <- read_csv("salarydata.csv")
salarydata
```

```
# A tibble: 100 x 2
   years salary
   <dbl>  <dbl>
 1     1  41504
 2     1  32619
 3     1  44322
 4     2  40038
 5     2  46147
 6     2  38447
 7     2  38163
 8     3  42104
 9     3  25597
10     3  39599
# … with 90 more rows
```
…
---

## Compute Residuals and Fitted Values

```r
library(broom)
salary_residuals <- augment(salary_fit)
salary_residuals
```

```
# A tibble: 100 x 8
   salary years .fitted .resid .std.resid   .hat .sigma  .cooksd
    <dbl> <dbl>   <dbl>  <dbl>      <dbl>  <dbl>  <dbl>    <dbl>
 1  41504     1  13939. 27565.      1.03  0.0391 27347. 0.0215  
 2  32619     1  13939. 18680.      0.697 0.0391 27428. 0.00988 
 3  44322     1  13939. 30383.      1.13  0.0391 27315. 0.0261  
 4  40038     2  22575. 17463.      0.650 0.0345 27436. 0.00753 
 5  46147     2  22575. 23572.      0.877 0.0345 27388. 0.0137  
 6  38447     2  22575. 15872.      0.590 0.0345 27447. 0.00622 
 7  38163     2  22575. 15588.      0.580 0.0345 27449. 0.00600 
 8  42104     3  31212. 10892.      0.404 0.0302 27473. 0.00255 
 9  25597     3  31212. -5615.     -0.208 0.0302 27490. 0.000677
10  39599     3  31212.  8387.      0.311 0.0302 27482. 0.00151 
# … with 90 more rows
```
…
