STA 506 2.0 Linear Regression Analysis
…
- Residuals are **not** independent.

---
### Observation-level statistics: `augment()`

```r
library(broom)
library(tidyverse)
model1_fitresid <- augment(model1)
model1_fitresid
```

```
# A tibble: 1,375 x 9
   Dheight Mheight .fitted .se.fit .resid     .hat .sigma .cooksd .std.resid
     <dbl>   <dbl>   <dbl>   <dbl>  <dbl>    <dbl>  <dbl>   <dbl>      <dbl>
 1    55.1    59.7    62.3  0.0940  -7.16 0.00172    2.26 0.00862     -3.16 
 2    56.5    58.2    61.4  0.126   -4.95 0.00310    2.26 0.00743     -2.19 
 3    56      60.6    62.7  0.0778  -6.75 0.00118    2.26 0.00523     -2.98 
 4    56.8    60.7    62.8  0.0762  -6.00 0.00113    2.26 0.00397     -2.65 
 5    56      61.8    63.4  0.0634  -7.40 0.000783   2.26 0.00418     -3.27 
 6    57.9    55.5    60.0  0.191   -2.08 0.00707    2.27 0.00303     -0.923
 7    57.1    55.4    59.9  0.193   -2.83 0.00725    2.27 0.00574     -1.25 
 8    57.6    56.8    60.7  0.159   -3.09 0.00492    2.27 0.00461     -1.37 
 9    57.2    57.5    61.1  0.142   -3.87 0.00395    2.26 0.00579     -1.71 
10    57.1    57.3    61.0  0.147   -3.86 0.00421    2.26 0.00616     -1.71 
# … with 1,365 more rows
```
…
