STA 506 2.0 Linear Regression Analysis
…
# Multiple Linear Regression Analysis

---

## Multiple Linear Regression Analysis

```r
library(tidyverse)
heart.data <- read_csv("heart.data.csv")
heart.data
```

```
# A tibble: 498 x 4
      X1 biking smoking heart.disease
   <dbl>  <dbl>   <dbl>         <dbl>
 1     1  30.8    10.9          11.8 
 2     2  65.1     2.22          2.85
 3     3   1.96   17.6          17.2 
 4     4  44.8     2.80          6.82
 5     5  69.4    16.0           4.06
 6     6  54.4    29.3           9.55
 7     7  49.1     9.06          7.62
 8     8   4.78   12.8          15.9 
 9     9  65.7    12.0           3.07
10    10  35.3    23.3          12.1 
# … with 488 more rows
```
…
