STA 506 2.0 Linear Regression Analysis
…
```
Warning: package 'tidyr' was built under R version 4.1.2
```

```
Warning: package 'readr' was built under R version 4.1.2
```

```r
heart.data <- read_csv("heart.data.csv")
heart.data 
```

```
# A tibble: 498 × 4
    ...1 biking smoking heart.disease
   <dbl>  <dbl>   <dbl>         <dbl>
 1     1  30.8    10.9          11.8 
 2     2  65.1     2.22          2.85
 3     3   1.96   17.6          17.2 
 4     4  44.8     2.80          6.82
 5     5  69.4    16.0           4.06
 6     6  54.4    29.3           9.55
 7     7  49.1     9.06          7.62
 8     8   4.78   12.8          15.9 
 9     9  65.7    12.0           3.07
10    10  35.3    23.3          12.1 
# … with 488 more rows
```
…
Is multicollinearity a problem?]

---

## Compute residuals and fitted values

```r
library(broom)
regHeart_values <- augment(regHeart)
regHeart_values
```

```
# A tibble: 498 × 9
   heart.disease biking smoking .fitted  .resid    .hat .sigma    .cooksd
           <dbl>  <dbl>   <dbl>   <dbl>   <dbl>   <dbl>  <dbl>      <dbl>
 1         11.8   30.8    10.9    10.8   1.01   0.00281  0.653 0.00223   
 2          2.85  65.1     2.22    2.35  0.508  0.0105   0.654 0.00216   
 3         17.2    1.96   17.6    17.7  -0.551  0.00777  0.654 0.00187   
 4          6.82  44.8     2.80    6.52  0.298  0.00693  0.655 0.000487  
 5          4.06  69.4    16.0     3.94  0.124  0.00638  0.655 0.0000770 
 6          9.55  54.4    29.3     9.33  0.222  0.00879  0.655 0.000344  
 7          7.62  49.1     9.06    6.78  0.842  0.00378  0.654 0.00210   
 8         15.9    4.78   12.8    16.3  -0.461  0.00693  0.654 0.00117   
 9          3.07  65.7    12.0     3.97 -0.901  0.00579  0.653 0.00371   
10         12.1   35.3    23.3    12.1   0.0188 0.00384  0.655 0.00000107
# … with 488 more rows, and 1 more variable: .std.resid <dbl>
```
…
