ICTC 3104.3 Data Analytics and Big Data
…
# `filter`

- Picks observations by their values.

- Takes logical expressions and returns the rows for which all are `TRUE`.

```r
filter(gapminder, lifeExp < 50)
```

```
# A tibble: 491 x 6
   country     continent  year lifeExp      pop gdpPercap
   <fct>       <fct>     <int>   <dbl>    <int>     <dbl>
 1 Afghanistan Asia       1952    28.8  8425333      779.
 2 Afghanistan Asia       1957    30.3  9240934      821.
 3 Afghanistan Asia       1962    32.0 10267083      853.
 4 Afghanistan Asia       1967    34.0 11537966      836.
 5 Afghanistan Asia       1972    36.1 13079460      740.
 6 Afghanistan Asia       1977    38.4 14880372      786.
 7 Afghanistan Asia       1982    39.9 12881816      978.
 8 Afghanistan Asia       1987    40.8 13867957      852.
 9 Afghanistan Asia       1992    41.7 16317921      649.
10 Afghanistan Asia       1997    41.8 22227415      635.
# … with 481 more rows
```
…
---
background-image: url(dplyr.png)
background-size: 70px
background-position: 98% 6%

# `filter` (cont)

```r
filter(gapminder, country %in% c("Sri Lanka", "Australia"))
```

```
# A tibble: 24 x 6
   country   continent  year lifeExp      pop gdpPercap
   <fct>     <fct>     <int>   <dbl>    <int>     <dbl>
 1 Australia Oceania    1952    69.1  8691212    10040.
 2 Australia Oceania    1957    70.3  9712569    10950.
 3 Australia Oceania    1962    70.9 10794968    12217.
 4 Australia Oceania    1967    71.1 11872264    14526.
 5 Australia Oceania    1972    71.9 13177000    16789.
 6 Australia Oceania    1977    73.5 14074100    18334.
 7 Australia Oceania    1982    74.7 15184200    19477.
 8 Australia Oceania    1987    76.3 16257249    21889.
 9 Australia Oceania    1992    77.6 17481977    23425.
10 Australia Oceania    1997    78.8 18565243    26998.
# … with 14 more rows
```
…
```
# A tibble: 3 x 6
  country     continent  year lifeExp      pop gdpPercap
  <fct>       <fct>     <int>   <dbl>    <int>     <dbl>
1 Afghanistan Asia       1952    28.8  8425333      779.
2 Afghanistan Asia       1957    30.3  9240934      821.
3 Afghanistan Asia       1962    32.0 10267083      853.
```

```r
select(gapminder, year:gdpPercap)
```

```
# A tibble: 1,704 x 4
    year lifeExp      pop gdpPercap
   <int>   <dbl>    <int>     <dbl>
 1  1952    28.8  8425333      779.
 2  1957    30.3  9240934      821.
 3  1962    32.0 10267083      853.
 4  1967    34.0 11537966      836.
 5  1972    36.1 13079460      740.
 6  1977    38.4 14880372      786.
 7  1982    39.9 12881816      978.
 8  1987    40.8 13867957      852.
 9  1992    41.7 16317921      649.
10  1997    41.8 22227415      635.
# … with 1,694 more rows
```
…
```
# A tibble: 3 x 6
  country     continent  year lifeExp      pop gdpPercap
  <fct>       <fct>     <int>   <dbl>    <int>     <dbl>
1 Afghanistan Asia       1952    28.8  8425333      779.
2 Afghanistan Asia       1957    30.3  9240934      821.
3 Afghanistan Asia       1962    32.0 10267083      853.
```

```r
select(gapminder, year, gdpPercap)
```

```
# A tibble: 1,704 x 2
    year gdpPercap
   <int>     <dbl>
 1  1952      779.
 2  1957      821.
 3  1962      853.
 4  1967      836.
 5  1972      740.
 6  1977      786.
 7  1982      978.
 8  1987      852.
 9  1992      649.
10  1997      635.
# … with 1,694 more rows
```
…
```
# A tibble: 3 x 6
  country     continent  year lifeExp      pop gdpPercap
  <fct>       <fct>     <int>   <dbl>    <int>     <dbl>
1 Afghanistan Asia       1952    28.8  8425333      779.
2 Afghanistan Asia       1957    30.3  9240934      821.
3 Afghanistan Asia       1962    32.0 10267083      853.
```

```r
select(gapminder, -c(year, gdpPercap))
```

```
# A tibble: 1,704 x 4
   country     continent lifeExp      pop
   <fct>       <fct>       <dbl>    <int>
 1 Afghanistan Asia         28.8  8425333
 2 Afghanistan Asia         30.3  9240934
 3 Afghanistan Asia         32.0 10267083
 4 Afghanistan Asia         34.0 11537966
 5 Afghanistan Asia         36.1 13079460
 6 Afghanistan Asia         38.4 14880372
 7 Afghanistan Asia         39.9 12881816
 8 Afghanistan Asia         40.8 13867957
 9 Afghanistan Asia         41.7 16317921
10 Afghanistan Asia         41.8 22227415
# … with 1,694 more rows
```
…
```
# A tibble: 3 x 6
  country     continent  year lifeExp      pop gdpPercap
  <fct>       <fct>     <int>   <dbl>    <int>     <dbl>
1 Afghanistan Asia       1952    28.8  8425333      779.
2 Afghanistan Asia       1957    30.3  9240934      821.
3 Afghanistan Asia       1962    32.0 10267083      853.
```

```r
select(gapminder, -(year:gdpPercap))
```

```
# A tibble: 1,704 x 2
   country     continent
   <fct>       <fct>    
 1 Afghanistan Asia     
 2 Afghanistan Asia     
 3 Afghanistan Asia     
 4 Afghanistan Asia     
 5 Afghanistan Asia     
 6 Afghanistan Asia     
 7 Afghanistan Asia     
 8 Afghanistan Asia     
 9 Afghanistan Asia     
10 Afghanistan Asia     
# … with 1,694 more rows
```
…
# `mutate`

- Creates new variables with functions of existing variables

```r
gapminder %>%
mutate(gdp = pop * gdpPercap)
```

```
# A tibble: 1,704 x 7
   country     continent  year lifeExp      pop gdpPercap          gdp
   <fct>       <fct>     <int>   <dbl>    <int>     <dbl>        <dbl>
 1 Afghanistan Asia       1952    28.8  8425333      779.  6567086330.
 2 Afghanistan Asia       1957    30.3  9240934      821.  7585448670.
 3 Afghanistan Asia       1962    32.0 10267083      853.  8758855797.
 4 Afghanistan Asia       1967    34.0 11537966      836.  9648014150.
 5 Afghanistan Asia       1972    36.1 13079460      740.  9678553274.
 6 Afghanistan Asia       1977    38.4 14880372      786. 11697659231.
 7 Afghanistan Asia       1982    39.9 12881816      978. 12598563401.
 8 Afghanistan Asia       1987    40.8 13867957      852. 11820990309.
 9 Afghanistan Asia       1992    41.7 16317921      649. 10595901589.
10 Afghanistan Asia       1997    41.8 22227415      635. 14121995875.
# … with 1,694 more rows
```
…
background-image: url(dplyr.png)
background-size: 70px
background-position: 98% 6%

# `arrange`

- Reorder the rows

```r
arrange(gapminder, desc(lifeExp))
```

```
# A tibble: 1,704 x 6
   country          continent  year lifeExp       pop gdpPercap
   <fct>            <fct>     <int>   <dbl>     <int>     <dbl>
 1 Japan            Asia       2007    82.6 127467972    31656.
 2 Hong Kong, China Asia       2007    82.2   6980412    39725.
 3 Japan            Asia       2002    82   127065841    28605.
 4 Iceland          Europe     2007    81.8    301931    36181.
 5 Switzerland      Europe     2007    81.7   7554661    37506.
 6 Hong Kong, China Asia       2002    81.5   6762476    30209.
 7 Australia        Oceania    2007    81.2  20434176    34435.
 8 Spain            Europe     2007    80.9  40448191    28821.
 9 Sweden           Europe     2007    80.9   9031088    33860.
10 Israel           Asia       2007    80.7   6426679    25523.
# … with 1,694 more rows
```
…
```r
Japan_SL_grouped <- Japan_SL %>% group_by(country)
Japan_SL_grouped
```

```
# A tibble: 24 x 6
# Groups:   country [2]
   country continent  year lifeExp       pop gdpPercap
   <fct>   <fct>     <int>   <dbl>     <int>     <dbl>
 1 Japan   Asia       1952    63.0  86459025     3217.
 2 Japan   Asia       1957    65.5  91563009     4318.
 3 Japan   Asia       1962    68.7  95831757     6577.
 4 Japan   Asia       1967    71.4 100825279     9848.
 5 Japan   Asia       1972    73.4 107188273    14779.
 6 Japan   Asia       1977    75.4 113872473    16610.
 7 Japan   Asia       1982    77.1 118454974    19384.
 8 Japan   Asia       1987    78.7 122091325    22376.
 9 Japan   Asia       1992    79.4 124329269    26825.
10 Japan   Asia       1997    80.7 125956499    28817.
# … with 14 more rows
```
…
```r
rename(gapminder,
       `life expectancy`=lifeExp,
       population=pop) # new_name = old_name
```

```
# A tibble: 1,704 x 6
   country     continent  year `life expectancy` population gdpPercap
   <fct>       <fct>     <int>             <dbl>      <int>     <dbl>
 1 Afghanistan Asia       1952              28.8    8425333      779.
 2 Afghanistan Asia       1957              30.3    9240934      821.
 3 Afghanistan Asia       1962              32.0   10267083      853.
 4 Afghanistan Asia       1967              34.0   11537966      836.
 5 Afghanistan Asia       1972              36.1   13079460      740.
 6 Afghanistan Asia       1977              38.4   14880372      786.
 7 Afghanistan Asia       1982              39.9   12881816      978.
 8 Afghanistan Asia       1987              40.8   13867957      852.
 9 Afghanistan Asia       1992              41.7   16317921      649.
10 Afghanistan Asia       1997              41.8   22227415      635.
# … with 1,694 more rows
```
…
# Combine multiple operations

```r
gapminder %>%
filter(continent == 'Asia') %>%
group_by(country) %>%
filter(lifeExp == max(lifeExp)) %>%
arrange(desc(year))
```

```
# A tibble: 33 x 6
# Groups:   country [33]
   country          continent  year lifeExp        pop gdpPercap
   <fct>            <fct>     <int>   <dbl>      <int>     <dbl>
 1 Afghanistan      Asia       2007    43.8   31889923      975.
 2 Bahrain          Asia       2007    75.6     708573    29796.
 3 Bangladesh       Asia       2007    64.1  150448339     1391.
 4 Cambodia         Asia       2007    59.7   14131858     1714.
 5 China            Asia       2007    73.0 1318683096     4959.
 6 Hong Kong, China Asia       2007    82.2    6980412    39725.
 7 India            Asia       2007    64.7 1110396331     2452.
 8 Indonesia        Asia       2007    70.6  223547000     3541.
 9 Iran             Asia       2007    71.0   69453570    11606.
10 Israel           Asia       2007    80.7    6426679    25523.
# … with 23 more rows
```
…
